{
	"info": {
		"_postman_id": "dff266ee-ab7d-40e3-95eb-166803b14aa6",
		"name": "Realogy",
		"schema": "https://schema.getpostman.com/json/collection/v2.1.0/collection.json"
	},
	"item": [
		{
			"name": "Listings",
			"item": [
				{
					"name": "Get Listings",
					"request": {
						"auth": {
							"type": "noauth"
						},
						"method": "GET",
						"header": [],
						"body": {
							"mode": "raw",
							"raw": ""
						},
						"url": {
							"raw": "http://{{HOST}}:{{PORT}}/api/v1/listings",
							"protocol": "http",
							"host": [
								"{{HOST}}"
							],
							"port": "{{PORT}}",
							"path": [
								"api",
								"v1",
								"listings"
							]
						}
					},
					"response": []
				},
				{
					"name": "Create a Listing",
					"request": {
						"auth": {
							"type": "noauth"
						},
						"method": "POST",
						"header": [
							{
								"key": "Content-Type",
								"name": "Content-Type",
								"value": "application/json",
								"type": "text"
							}
						],
						"body": {
							"mode": "raw",
							"raw": "{\n  \"address\": \"2222 Anton Blvd.\",\n  \"city\": \"Costa Mesa\",\n  \"state\": \"CA\",\n  \"postalCode\": \"92626\",\n  \"propertyType\": \"HOUSE\",\n  \"bedrooms\": 4,\n  \"bathrooms\": 1\n}\n"
						},
						"url": {
							"raw": "http://{{HOST}}:{{PORT}}/api/v1/listings",
							"protocol": "http",
							"host": [
								"{{HOST}}"
							],
							"port": "{{PORT}}",
							"path": [
								"api",
								"v1",
								"listings"
							]
						}
					},
					"response": []
				},
				{
					"name": "Remove a listing",
					"request": {
						"method": "DELETE",
						"header": [],
						"body": {
							"mode": "raw",
							"raw": ""
						},
						"url": {
							"raw": "http://{{HOST}}:{{PORT}}/api/v1/listings/:id",
							"protocol": "http",
							"host": [
								"{{HOST}}"
							],
							"port": "{{PORT}}",
							"path": [
								"api",
								"v1",
								"listings",
								":id"
							],
							"variable": [
								{
									"key": "id",
									"value": ""
								}
							]
						}
					},
					"response": []
				},
				{
					"name": "Edit a Listing",
					"request": {
						"method": "PUT",
						"header": [
							{
								"key": "Content-Type",
								"value": "application/json",
								"type": "text"
							}
						],
						"body": {
							"mode": "raw",
							"raw": "{\n        \"hideAddress\": true,\n        \"sellerEmail\": \"mhinca@mac.com\"\n    }"
						},
						"url": {
							"raw": "http://{{HOST}}:{{PORT}}/api/v1/listings/:id",
							"protocol": "http",
							"host": [
								"{{HOST}}"
							],
							"port": "{{PORT}}",
							"path": [
								"api",
								"v1",
								"listings",
								":id"
							],
							"variable": [
								{
									"key": "id",
									"value": "5bd0826049b8623b2ca6ddea"
								}
							]
						}
					},
					"response": []
				},
				{
					"name": "Get a Listing",
					"request": {
						"method": "GET",
						"header": [],
						"body": {
							"mode": "raw",
							"raw": ""
						},
						"url": {
							"raw": "http://{{HOST}}:{{PORT}}/api/v1/listings/:id",
							"protocol": "http",
							"host": [
								"{{HOST}}"
							],
							"port": "{{PORT}}",
							"path": [
								"api",
								"v1",
								"listings",
								":id"
							],
							"variable": [
								{
									"key": "id",
									"value": ""
								}
							]
						}
					},
					"response": []
				}
			]
		},
		{
			"name": "Metros",
			"item": [
				{
					"name": "Insert a Metro",
					"request": {
						"method": "POST",
						"header": [
							{
								"key": "Content-Type",
								"value": "application/json"
							}
						],
						"body": {
							"mode": "raw",
							"raw": "{\"id\": \"Metro 1\", \"name\": \"This is Metro 1\", \"companyName\": \"Metro 1, Inc.\"}"
						},
						"url": {
							"raw": "http://{{HOST}}:{{PORT}}/api/v1/metros",
							"protocol": "http",
							"host": [
								"{{HOST}}"
							],
							"port": "{{PORT}}",
							"path": [
								"api",
								"v1",
								"metros"
							]
						}
					},
					"response": []
				},
				{
					"name": "Delete Metro by Id",
					"request": {
						"method": "DELETE",
						"header": [
							{
								"key": "Content-Type",
								"value": "application/json"
							}
						],
						"body": {
							"mode": "raw",
							"raw": "{\"id\": \"abc\", \"name\": \"This is Metro abc\", \"companyName\": \"Metro ABC, Inc.\"}"
						},
						"url": {
							"raw": "http://{{HOST}}:{{PORT}}/api/v1/metros/abc",
							"protocol": "http",
							"host": [
								"{{HOST}}"
							],
							"port": "{{PORT}}",
							"path": [
								"api",
								"v1",
								"metros",
								"abc"
							]
						}
					},
					"response": []
				},
				{
					"name": "Retrieve all Metros",
					"request": {
						"method": "GET",
						"header": [
							{
								"key": "Content-Type",
								"value": "application/json"
							}
						],
						"body": {
							"mode": "raw",
							"raw": ""
						},
						"url": {
							"raw": "http://{{HOST}}:{{PORT}}/api/v1/metros",
							"protocol": "http",
							"host": [
								"{{HOST}}"
							],
							"port": "{{PORT}}",
							"path": [
								"api",
								"v1",
								"metros"
							]
						}
					},
					"response": []
				},
				{
					"name": "Retrieve a Metro by Id",
					"request": {
						"method": "GET",
						"header": [
							{
								"key": "Content-Type",
								"value": "application/json"
							}
						],
						"body": {
							"mode": "raw",
							"raw": ""
						},
						"url": {
							"raw": "http://{{HOST}}:{{PORT}}/api/v1/metros/Metro%201",
							"protocol": "http",
							"host": [
								"{{HOST}}"
							],
							"port": "{{PORT}}",
							"path": [
								"api",
								"v1",
								"metros",
								"Metro%201"
							]
						}
					},
					"response": []
				}
			]
		},
		{
			"name": "Themes",
			"item": [
				{
					"name": "Get all Themes",
					"request": {
						"method": "GET",
						"header": [
							{
								"key": "Content-Type",
								"value": "application/json"
							}
						],
						"body": {
							"mode": "raw",
							"raw": ""
						},
						"url": {
							"raw": "http://{{HOST}}:{{PORT}}/api/v1/themes",
							"protocol": "http",
							"host": [
								"{{HOST}}"
							],
							"port": "{{PORT}}",
							"path": [
								"api",
								"v1",
								"themes"
							]
						}
					},
					"response": []
				}
			]
		},
		{
			"name": "Products",
			"item": [
				{
					"name": "Get Products",
					"request": {
						"method": "GET",
						"header": [],
						"body": {
							"mode": "raw",
							"raw": ""
						},
						"url": {
							"raw": "http://{{HOST}}:{{PORT}}/api/v1/products",
							"protocol": "http",
							"host": [
								"{{HOST}}"
							],
							"port": "{{PORT}}",
							"path": [
								"api",
								"v1",
								"products"
							]
						}
					},
					"response": []
				},
				{
					"name": "Create a Product",
					"request": {
						"method": "POST",
						"header": [
							{
								"key": "Content-Type",
								"name": "Content-Type",
								"value": "application/json",
								"type": "text",
								"disabled": true
							}
						],
						"body": {
							"mode": "formdata",
							"formdata": [
								{
									"key": "product-image",
									"type": "file",
									"src": ""
								},
								{
									"key": "data",
									"value": "{ \"title\": \"Mikes Product\", \"price\": 19.00, \"unitQuantity\": 25 }",
									"type": "text"
								}
							]
						},
						"url": {
							"raw": "http://{{HOST}}:{{PORT}}/api/v1/products",
							"protocol": "http",
							"host": [
								"{{HOST}}"
							],
							"port": "{{PORT}}",
							"path": [
								"api",
								"v1",
								"products"
							]
						}
					},
					"response": []
				},
				{
					"name": "Get a Product",
					"request": {
						"method": "GET",
						"header": [],
						"body": {
							"mode": "raw",
							"raw": ""
						},
						"url": {
							"raw": "http://{{HOST}}:{{PORT}}/api/v1/products/:id",
							"protocol": "http",
							"host": [
								"{{HOST}}"
							],
							"port": "{{PORT}}",
							"path": [
								"api",
								"v1",
								"products",
								":id"
							],
							"variable": [
								{
									"key": "id",
									"value": "5bd23743ff25d55461da82f3"
								}
							]
						}
					},
					"response": []
				},
				{
					"name": "Delete a Product",
					"request": {
						"method": "DELETE",
						"header": [],
						"body": {
							"mode": "raw",
							"raw": ""
						},
						"url": {
							"raw": "http://{{HOST}}:{{PORT}}/api/v1/products/:id",
							"protocol": "http",
							"host": [
								"{{HOST}}"
							],
							"port": "{{PORT}}",
							"path": [
								"api",
								"v1",
								"products",
								":id"
							],
							"variable": [
								{
									"key": "id",
									"value": "bd212a020303c521615eb86"
								}
							]
						}
					},
					"response": []
				},
				{
					"name": "Get a Product Image",
					"request": {
						"method": "GET",
						"header": [],
						"body": {
							"mode": "raw",
							"raw": ""
						},
						"url": {
							"raw": "http://{{HOST}}:{{PORT}}/api/v1/products/:id/image",
							"protocol": "http",
							"host": [
								"{{HOST}}"
							],
							"port": "{{PORT}}",
							"path": [
								"api",
								"v1",
								"products",
								":id",
								"image"
							],
							"variable": [
								{
									"key": "id",
									"value": "5bd244c31c89a25533c335cb"
								}
							]
						}
					},
					"response": []
				}
			]
		},
		{
			"name": "MarketingOrders",
			"item": [
				{
					"name": "Get all Marketing Orders",
					"request": {
						"method": "GET",
						"header": [],
						"body": {
							"mode": "raw",
							"raw": ""
						},
						"url": {
							"raw": "http://{{HOST}}:{{PORT}}/api/v1/marketingOrders",
							"protocol": "http",
							"host": [
								"{{HOST}}"
							],
							"port": "{{PORT}}",
							"path": [
								"api",
								"v1",
								"marketingOrders"
							]
						}
					},
					"response": []
				},
				{
					"name": "Create a marketing order",
					"request": {
						"method": "POST",
						"header": [
							{
								"key": "Content-Type",
								"name": "Content-Type",
								"value": "application/json",
								"type": "text"
							}
						],
						"body": {
							"mode": "raw",
							"raw": "{\n\t\"listing\": {\n\t\t\"userId\": \"user1\",\n\t\t\"agentName\": \"Lee Grey\",\n\t\t\"agentIsPrimary\": true,\n\t\t\"address\": \"123 Main\",\n\t\t\"unitNumber\": \"456\",\n\t\t\"city\": \"Anytown\",\n\t\t\"state\": \"AZ\",\n\t\t\"postalCode\": \"87654\",\n\t\t\"mlsId\": \"12345678901234567890\",\n\t\t\"propertyType\": \"House\",\n\t\t\"status\": \"Occupied\",\n\t\t\"hideAddress\": false,\n\t\t\"globalLuxuryListing\": false,\n\t\t\"listPrice\": 123456789,\n\t\t\"displayAsPriceOnRequest\": true,\n\t\t\"bedrooms\": 4,\n\t\t\"bathrooms\": 3,\n\t\t\"sqFt\": 7500,\n\t\t\"lotSqFt\": 45000,\n\t\t\"agentId\": \"007\",\n\t\t\"archived\": false,\n\t\t\"sellerFirstName\": \"Gold\",\n\t\t\"sellerLastName\": \"Finger\",\n\t\t\"sellerEmail\": \"gold@goldfinger.com\",\n\t\t\"sellerEmailSalutation\": \"gold@goldfinger.com\"\n\t},\n\t\"package\": {\n\t\t\"title\": \"Pkg 1\",\n\t\t\"price\": 12346587,\n\t\t\"description\": \"What a package!\",\n\t\t\"position\": 1,\n\t\t\"products\": [{\n\t\t\t\"id\": 123,\n\t\t\t\"title\": \"Flyer\",\n\t\t\t\"price\": 50,\n\t\t\t\"unitQuantity\": 100,\n\t\t\t\"description\": \"100 Flyers\"\n\t\t}]\n\t}\n}\n"
						},
						"url": {
							"raw": "http://{{HOST}}:{{PORT}}/api/v1/marketingOrders",
							"protocol": "http",
							"host": [
								"{{HOST}}"
							],
							"port": "{{PORT}}",
							"path": [
								"api",
								"v1",
								"marketingOrders"
							]
						}
					},
					"response": []
				},
				{
					"name": "Get a marketing order by Id",
					"request": {
						"method": "GET",
						"header": [],
						"body": {
							"mode": "raw",
							"raw": ""
						},
						"url": {
							"raw": "http://{{HOST}}:{{PORT}}/api/v1/marketingOrders/5bdc8a2acaaba221d03ffca4",
							"protocol": "http",
							"host": [
								"{{HOST}}"
							],
							"port": "{{PORT}}",
							"path": [
								"api",
								"v1",
								"marketingOrders",
								"5bdc8a2acaaba221d03ffca4"
							]
						}
					},
					"response": []
				}
			]
		},
		{
			"name": "Packages",
			"item": [
				{
					"name": "Retrieve all Packages",
					"request": {
						"method": "GET",
						"header": [
							{
								"key": "Content-Type",
								"value": "application/json"
							}
						],
						"body": {
							"mode": "raw",
							"raw": ""
						},
						"url": {
							"raw": "http://{{HOST}}:{{PORT}}/api/v1/packages",
							"protocol": "http",
							"host": [
								"{{HOST}}"
							],
							"port": "{{PORT}}",
							"path": [
								"api",
								"v1",
								"packages"
							]
						}
					},
					"response": []
				}
			]
		}
	],
	"event": [
		{
			"listen": "prerequest",
			"script": {
				"id": "ee963067-7781-4833-9bfb-5017e391002f",
				"type": "text/javascript",
				"exec": [
					""
				]
			}
		},
		{
			"listen": "test",
			"script": {
				"id": "2aac034e-25ae-4392-9ffb-e53ff72f6446",
				"type": "text/javascript",
				"exec": [
					""
				]
			}
		}
	],
	"variable": [
		{
			"id": "102199d6-8293-4d6b-92ab-15676e3fe86f",
			"key": "HOST",
			"value": "localhost",
			"type": "string"
		},
		{
			"id": "fc619102-31f4-49d0-877f-af51b95a5740",
			"key": "PORT",
			"value": "4200",
			"type": "string"
		}
	]
}