<?xml version="1.0" encoding="UTF-8"?>
<svg width="32px" height="32px" viewBox="0 0 32 32" version="1.1" xmlns="http://www.w3.org/2000/svg" xmlns:xlink="http://www.w3.org/1999/xlink">
    <!-- Generator: Sketch 53.2 (72643) - https://sketchapp.com -->
    <title>fav_off_icon</title>
    <desc>Created with Sketch.</desc>
    <g id="Page-1" stroke="none" stroke-width="1" fill="none" fill-rule="evenodd">
        <g id="fav_off_icon">
            <circle id="Oval-2-Copy-2" fill-opacity="0.8" fill="#000000" cx="16" cy="16" r="16"></circle>
            <g id="heart" transform="translate(6.176471, 9.000000)" fill="#FFFFFF" fill-rule="nonzero">
                <path d="M16.9391466,1.08191251 C14.9071168,-0.544876935 11.767666,-0.300523788 9.82352685,1.58400802 C7.87938767,-0.300523788 4.73993686,-0.548224238 2.70790711,1.08191251 C0.0641590666,3.20075556 0.450877531,6.65517265 2.33525114,8.48614761 L8.50165283,14.4677788 C8.85321507,14.8092037 9.32430847,15 9.82352685,15 C10.3262609,15 10.7938386,14.812551 11.1454009,14.4711261 L17.3118026,8.48949491 C19.1926606,6.65851996 19.5864103,3.20410286 16.9391466,1.08191251 Z M16.1094597,7.35810636 L9.94305802,13.3397375 C9.85868308,13.4200728 9.78837063,13.4200728 9.70399569,13.3397375 L3.537594,7.35810636 C2.25439182,6.1129095 1.99423577,3.75640792 3.79423443,2.31372016 C5.16181155,1.21915195 7.27118499,1.38316982 8.59305901,2.66518701 L9.82352685,3.86017432 L11.0539947,2.66518701 C12.3829,1.37647521 14.4922734,1.21915195 15.8528193,2.31037286 C17.6493023,3.75306062 17.382115,6.12295141 16.1094597,7.35810636 L16.1094597,7.35810636 Z" id="Shape"></path>
            </g>
        </g>
    </g>
</svg>