<?xml version="1.0" encoding="UTF-8"?>
<svg width="12px" height="16px" viewBox="0 0 12 16" version="1.1" xmlns="http://www.w3.org/2000/svg" xmlns:xlink="http://www.w3.org/1999/xlink">
    <!-- Generator: Sketch 52.6 (67491) - http://www.bohemiancoding.com/sketch -->
    <title>listingdetailsicon</title>
    <desc>Created with Sketch.</desc>
    <g id="wf" stroke="none" stroke-width="1" fill="none" fill-rule="evenodd">
        <g id="Photography-services" transform="translate(-28.000000, -314.000000)" fill="#657786" fill-rule="nonzero">
            <g id="Group-11">
                <g id="Group-10">
                    <g id="Group-16" transform="translate(0.000000, 262.000000)">
                        <g id="Group-5-Copy" transform="translate(0.000000, 34.000000)">
                            <g id="home" transform="translate(28.000000, 18.000000)">
                                <g id="listingdetailsicon">
                                    <path d="M11.5368421,3.08460039 L8.92007797,0.467836257 C8.63937622,0.187134503 8.2588694,0.0280701754 7.86276803,0.0280701754 L1.49707602,0.0280701754 C0.670565302,0.0311890838 0,0.701754386 0,1.52826511 L0,14.502924 C0,15.3294347 0.670565302,16 1.49707602,16 L10.4795322,16 C11.3060429,16 11.9766082,15.3294347 11.9766082,14.502924 L11.9766082,4.14502924 C11.9766082,3.74892788 11.8175439,3.36530214 11.5368421,3.08460039 Z M10.8319688,3.79259259 C10.8974659,3.85808967 10.9411306,3.93606238 10.962963,4.02339181 L7.98440546,4.02339181 L7.98440546,1.04483431 C8.07173489,1.06666667 8.1497076,1.11033138 8.21520468,1.17582846 L10.8319688,3.79259259 Z M10.4795322,15.0019493 L1.49707602,15.0019493 C1.22261209,15.0019493 0.998050682,14.7773879 0.998050682,14.502924 L0.998050682,1.52826511 C0.998050682,1.25380117 1.22261209,1.02923977 1.49707602,1.02923977 L6.98635478,1.02923977 L6.98635478,4.27290448 C6.98635478,4.6877193 7.32007797,5.0214425 7.73489279,5.0214425 L10.9785575,5.0214425 L10.9785575,14.502924 C10.9785575,14.7773879 10.7539961,15.0019493 10.4795322,15.0019493 Z M8.98245614,7.39181287 L8.98245614,7.64132554 C8.98245614,7.84717349 8.81403509,8.01559454 8.60818713,8.01559454 L3.36842105,8.01559454 C3.1625731,8.01559454 2.99415205,7.84717349 2.99415205,7.64132554 L2.99415205,7.39181287 C2.99415205,7.18596491 3.1625731,7.01754386 3.36842105,7.01754386 L8.60818713,7.01754386 C8.81403509,7.01754386 8.98245614,7.18596491 8.98245614,7.39181287 Z M8.98245614,9.38791423 L8.98245614,9.6374269 C8.98245614,9.84327485 8.81403509,10.0116959 8.60818713,10.0116959 L3.36842105,10.0116959 C3.1625731,10.0116959 2.99415205,9.84327485 2.99415205,9.6374269 L2.99415205,9.38791423 C2.99415205,9.18206628 3.1625731,9.01364522 3.36842105,9.01364522 L8.60818713,9.01364522 C8.81403509,9.01364522 8.98245614,9.18206628 8.98245614,9.38791423 Z M8.98245614,11.3840156 L8.98245614,11.6335283 C8.98245614,11.8393762 8.81403509,12.0077973 8.60818713,12.0077973 L3.36842105,12.0077973 C3.1625731,12.0077973 2.99415205,11.8393762 2.99415205,11.6335283 L2.99415205,11.3840156 C2.99415205,11.1781676 3.1625731,11.0097466 3.36842105,11.0097466 L8.60818713,11.0097466 C8.81403509,11.0097466 8.98245614,11.1781676 8.98245614,11.3840156 Z" id="Shape"></path>
                                </g>
                            </g>
                        </g>
                    </g>
                </g>
            </g>
        </g>
    </g>
</svg>