<?xml version="1.0" encoding="UTF-8"?>
<svg width="19px" height="16px" viewBox="0 0 19 16" version="1.1" xmlns="http://www.w3.org/2000/svg" xmlns:xlink="http://www.w3.org/1999/xlink">
    <!-- Generator: Sketch 52.6 (67491) - http://www.bohemiancoding.com/sketch -->
    <title>ordermanagementicon</title>
    <desc>Created with Sketch.</desc>
    <g id="wf" stroke="none" stroke-width="1" fill="none" fill-rule="evenodd">
        <g id="Photography-services" transform="translate(-24.000000, -262.000000)" fill="#657786" fill-rule="nonzero">
            <g id="Group-11">
                <g id="Group-10">
                    <g id="Group-16" transform="translate(0.000000, 262.000000)">
                        <g id="Group-5">
                            <g id="ordermanagementicon" transform="translate(24.000000, 0.000000)">
                                <path d="M18.1617778,6.98666667 L15.9644444,5.21955556 L15.9644444,2.51733333 C15.9644444,2.4 15.8684444,2.304 15.7511111,2.304 L15.04,2.304 C14.9226667,2.304 14.8266667,2.4 14.8266667,2.51733333 L14.8266667,4.29866667 L9.85244444,0.288 C9.43644444,-0.0497777778 8.83911111,-0.0497777778 8.42311111,0.288 L0.113777778,6.98666667 C0.0213333333,7.06133333 0.00711111111,7.19644444 0.0817777778,7.28533333 L0.529777778,7.84 C0.604444444,7.93244444 0.739555556,7.94666667 0.832,7.872 L2.31111111,6.68088889 L2.31111111,14.8231111 C2.31111111,15.4524444 2.81955556,15.9608889 3.44888889,15.9608889 L7.57333333,15.9608889 C7.808,15.9608889 8,15.7688889 8,15.5342222 L8,10.8373333 L10.2755556,10.848 L10.2755556,15.5484444 C10.2755556,15.7831111 10.4675556,15.9751111 10.7022222,15.9751111 L14.8266667,15.9644444 C15.456,15.9644444 15.9644444,15.456 15.9644444,14.8266667 L15.9644444,6.68444444 L17.4435556,7.87555556 C17.536,7.95022222 17.6711111,7.936 17.7457778,7.84355556 L18.1937778,7.28888889 C18.2684444,7.19644444 18.2506667,7.06133333 18.1617778,6.98666667 Z M14.8266667,14.8266667 L11.4133333,14.8373333 L11.4133333,10.1333333 C11.4133333,9.89866667 11.2213333,9.70666667 10.9866667,9.70666667 L7.28888889,9.696 C7.05422222,9.696 6.86222222,9.888 6.86222222,10.1226667 L6.86222222,14.8266667 L3.44888889,14.8266667 L3.44888889,5.76355556 L9.00266667,1.28355556 C9.08088889,1.21955556 9.19111111,1.21955556 9.26933333,1.28355556 L14.8231111,5.76355556 L14.8231111,14.8266667 L14.8266667,14.8266667 Z" id="Shape"></path>
                            </g>
                        </g>
                    </g>
                </g>
            </g>
        </g>
    </g>
</svg>