<svg width="27px" height="25px" viewBox="0 0 27 25" version="1.1" xmlns="http://www.w3.org/2000/svg" xmlns:xlink="http://www.w3.org/1999/xlink">
  <!-- Generator: Sketch 49.3 (51167) - http://www.bohemiancoding.com/sketch -->
  <desc>Created with Sketch.</desc>
  <defs></defs>
  <g id="Symbols" stroke="none" stroke-width="1" fill="none" fill-rule="evenodd">
    <g id="navigation/top" transform="translate(-1090.000000, -12.000000)" fill="#000000">
      <g id="component/waffle" transform="translate(1090.000000, 12.000000)">
        <rect id="Rectangle-2" x="0.794117647" y="0" width="6.35294118" height="6.25"></rect>
        <rect id="Rectangle-2" x="10.3235294" y="0" width="6.35294118" height="6.25"></rect>
        <rect id="Rectangle-2" x="19.8529412" y="0" width="6.35294118" height="6.25"></rect>
        <rect id="Rectangle-2" x="0.794117647" y="9.375" width="6.35294118" height="6.25"></rect>
        <rect id="Rectangle-2" x="10.3235294" y="9.375" width="6.35294118" height="6.25"></rect>
        <rect id="Rectangle-2" x="19.8529412" y="9.375" width="6.35294118" height="6.25"></rect>
        <rect id="Rectangle-2" x="0.794117647" y="18.75" width="6.35294118" height="6.25"></rect>
        <rect id="Rectangle-2" x="10.3235294" y="18.75" width="6.35294118" height="6.25"></rect>
        <rect id="Rectangle-2" x="19.8529412" y="18.75" width="6.35294118" height="6.25"></rect>
      </g>
    </g>
  </g>
</svg>
