<svg width="22px" height="26px" viewBox="0 0 22 26" version="1.1" xmlns="http://www.w3.org/2000/svg" xmlns:xlink="http://www.w3.org/1999/xlink">
  <!-- Generator: Sketch 49.2 (51160) - http://www.bohemiancoding.com/sketch -->
  <desc>Created with Sketch.</desc>
  <defs></defs>
  <g id="Symbols" stroke="none" stroke-width="1" fill="none" fill-rule="evenodd" font-family="FontAwesome" font-size="25" font-weight="300" letter-spacing="0.3240742">
    <g id="navigation/top" transform="translate(-1152.000000, -12.000000)" fill="#000000">
      <text id="ïƒ³">
        <tspan x="1152.40046" y="34">ïƒ³</tspan>
      </text>
    </g>
  </g>
</svg>
