<?xml version="1.0" encoding="UTF-8"?>
<svg width="72px" height="50px" viewBox="0 0 72 50" version="1.1" xmlns="http://www.w3.org/2000/svg" xmlns:xlink="http://www.w3.org/1999/xlink">
    <!-- Generator: Sketch 52.3 (67297) - http://www.bohemiancoding.com/sketch -->
    <title>teamon</title>
    <desc>Created with Sketch.</desc>
    <g id="Page-4" stroke="none" stroke-width="1" fill="none" fill-rule="evenodd">
        <g id="Desktop-HD-Copy-5" transform="translate(-827.000000, -360.000000)" fill="#1F69FF" fill-rule="nonzero">
            <g id="Group-16-Copy" transform="translate(514.000000, 297.000000)">
                <g id="Group-13-Copy" transform="translate(285.000000, 31.000000)">
                    <g id="user-alt" transform="translate(28.000000, 32.000000)">
                        <g id="users">
                            <path d="M60.7142857,21.4285714 C65.6473214,21.4285714 69.6428571,17.4330357 69.6428571,12.5 C69.6428571,7.56696429 65.6473214,3.57142857 60.7142857,3.57142857 C55.78125,3.57142857 51.7857143,7.56696429 51.7857143,12.5 C51.7857143,17.4330357 55.78125,21.4285714 60.7142857,21.4285714 Z M60.7142857,7.14285714 C63.671875,7.14285714 66.0714286,9.54241071 66.0714286,12.5 C66.0714286,15.4575893 63.671875,17.8571429 60.7142857,17.8571429 C57.7566964,17.8571429 55.3571429,15.4575893 55.3571429,12.5 C55.3571429,9.54241071 57.7566964,7.14285714 60.7142857,7.14285714 Z M35.7142857,25 C42.6227679,25 48.2142857,19.4084821 48.2142857,12.5 C48.2142857,5.59151786 42.6227679,0 35.7142857,0 C28.8058036,0 23.2142857,5.59151786 23.2142857,12.5 C23.2142857,19.4084821 28.8058036,25 35.7142857,25 Z M35.7142857,3.57142857 C40.6361607,3.57142857 44.6428571,7.578125 44.6428571,12.5 C44.6428571,17.421875 40.6361607,21.4285714 35.7142857,21.4285714 C30.7924107,21.4285714 26.7857143,17.421875 26.7857143,12.5 C26.7857143,7.578125 30.7924107,3.57142857 35.7142857,3.57142857 Z M62.9464286,25 L58.4821429,25 C56.7857143,25 55.2120536,25.5357143 53.8950893,26.4397321 C54.9441964,27.1540179 55.8928571,27.9910714 56.7299107,28.9397321 C57.2767857,28.7053571 57.8683036,28.5714286 58.4821429,28.5714286 L62.9464286,28.5714286 C65.6473214,28.5714286 67.8571429,30.9709821 67.8571429,33.9285714 C67.8571429,34.9107143 68.6607143,35.7142857 69.6428571,35.7142857 C70.625,35.7142857 71.4285714,34.9107143 71.4285714,33.9285714 C71.4285714,29.0066964 67.6227679,25 62.9464286,25 Z M10.7142857,21.4285714 C15.6473214,21.4285714 19.6428571,17.4330357 19.6428571,12.5 C19.6428571,7.56696429 15.6473214,3.57142857 10.7142857,3.57142857 C5.78125,3.57142857 1.78571429,7.56696429 1.78571429,12.5 C1.78571429,17.4330357 5.78125,21.4285714 10.7142857,21.4285714 Z M10.7142857,7.14285714 C13.671875,7.14285714 16.0714286,9.54241071 16.0714286,12.5 C16.0714286,15.4575893 13.671875,17.8571429 10.7142857,17.8571429 C7.75669643,17.8571429 5.35714286,15.4575893 5.35714286,12.5 C5.35714286,9.54241071 7.75669643,7.14285714 10.7142857,7.14285714 Z M44.6540179,27.2321429 C40.9263393,27.2321429 40,28.5714286 35.7142857,28.5714286 C31.4285714,28.5714286 30.5022321,27.2321429 26.7745536,27.2321429 C22.7232143,27.2321429 18.7834821,29.0401786 16.4732143,32.4665179 C15.0892857,34.5200893 14.2857143,36.9866071 14.2857143,39.6428571 L14.2857143,44.6428571 C14.2857143,47.6004464 16.6852679,50 19.6428571,50 L51.7857143,50 C54.7433036,50 57.1428571,47.6004464 57.1428571,44.6428571 L57.1428571,39.6428571 C57.1428571,36.9866071 56.3392857,34.5200893 54.9553571,32.4665179 C52.6450893,29.0401786 48.7053571,27.2321429 44.6540179,27.2321429 Z M53.5714286,44.6428571 C53.5714286,45.625 52.7678571,46.4285714 51.7857143,46.4285714 L19.6428571,46.4285714 C18.6607143,46.4285714 17.8571429,45.625 17.8571429,44.6428571 L17.8571429,39.6428571 C17.8571429,37.7901786 18.4040179,35.9933036 19.4308036,34.4642857 C20.9709821,32.1763393 23.7165179,30.8035714 26.7633929,30.8035714 C29.8214286,30.8035714 30.9151786,32.1428571 35.7142857,32.1428571 C40.5133929,32.1428571 41.6071429,30.8035714 44.6540179,30.8035714 C47.7008929,30.8035714 50.4464286,32.1763393 51.9866071,34.4642857 C53.0133929,35.9933036 53.5602679,37.7901786 53.5602679,39.6428571 L53.5602679,44.6428571 L53.5714286,44.6428571 Z M17.5334821,26.4397321 C16.2053571,25.5357143 14.6316964,25 12.9464286,25 L8.48214286,25 C3.80580357,25 0,29.0066964 0,33.9285714 C0,34.9107143 0.803571429,35.7142857 1.78571429,35.7142857 C2.76785714,35.7142857 3.57142857,34.9107143 3.57142857,33.9285714 C3.57142857,30.9709821 5.78125,28.5714286 8.48214286,28.5714286 L12.9464286,28.5714286 C13.5602679,28.5714286 14.1517857,28.7053571 14.6986607,28.9397321 C15.5357143,27.9910714 16.4955357,27.1540179 17.5334821,26.4397321 Z" id="teamon"></path>
                        </g>
                    </g>
                </g>
            </g>
        </g>
    </g>
</svg>