<?xml version="1.0" encoding="UTF-8"?>
<svg width="24px" height="17px" viewBox="0 0 24 17" version="1.1" xmlns="http://www.w3.org/2000/svg" xmlns:xlink="http://www.w3.org/1999/xlink">
    <!-- Generator: Sketch 53.2 (72643) - https://sketchapp.com -->
    <title>teams-icon</title>
    <desc>Created with Sketch.</desc>
    <g id="Profile" stroke="none" stroke-width="1" fill="none" fill-rule="evenodd">
        <g id="Profile-01" transform="translate(-20.000000, -227.000000)" fill="#14171A" fill-rule="nonzero">
            <g id="teams-icon" transform="translate(20.000000, 227.000000)">
                <path d="M19.8718488,7.28571429 C21.4864365,7.28571429 22.7941795,5.92723214 22.7941795,4.25 C22.7941795,2.57276786 21.4864365,1.21428571 19.8718488,1.21428571 C18.2572611,1.21428571 16.9495181,2.57276786 16.9495181,4.25 C16.9495181,5.92723214 18.2572611,7.28571429 19.8718488,7.28571429 Z M19.8718488,3.03571429 C20.5147616,3.03571429 21.0407811,3.58214286 21.0407811,4.25 C21.0407811,4.91785714 20.5147616,5.46428571 19.8718488,5.46428571 C19.2289361,5.46428571 18.7029165,4.91785714 18.7029165,4.25 C18.7029165,3.58214286 19.2289361,3.03571429 19.8718488,3.03571429 Z M3.50679685,7.28571429 C5.12138457,7.28571429 6.42912756,5.92723214 6.42912756,4.25 C6.42912756,2.57276786 5.12138457,1.21428571 3.50679685,1.21428571 C1.89220913,1.21428571 0.584466142,2.57276786 0.584466142,4.25 C0.584466142,5.92723214 1.89220913,7.28571429 3.50679685,7.28571429 Z M3.50679685,3.03571429 C4.14970961,3.03571429 4.67572913,3.58214286 4.67572913,4.25 C4.67572913,4.91785714 4.14970961,5.46428571 3.50679685,5.46428571 C2.86388409,5.46428571 2.33786457,4.91785714 2.33786457,4.25 C2.33786457,3.58214286 2.86388409,3.03571429 3.50679685,3.03571429 Z M17.9869455,11.0386161 C16.9823943,9.49040179 15.0390444,8.91361607 13.3185222,9.45625 C12.7998085,9.61941964 12.2555244,9.71049107 11.6856699,9.71049107 C11.1158154,9.71049107 10.5715313,9.61941964 10.0528176,9.45625 C8.33229543,8.91361607 6.38894551,9.48660714 5.38439433,11.0386161 C4.93143307,11.7368304 4.66842331,12.5754464 4.66842331,13.4785714 L4.66842331,15.1785714 C4.66842331,16.1841518 5.45379968,17 6.42182173,17 L16.9422123,17 C17.9102343,17 18.6956107,16.1841518 18.6956107,15.1785714 L18.6956107,13.4785714 C18.7029165,12.5754464 18.4399068,11.7368304 17.9869455,11.0386161 Z M16.9495181,15.1785714 L6.42912756,15.1785714 L6.42912756,13.4785714 C6.42912756,12.0973214 7.49577827,10.9665179 8.81813291,10.9285714 C9.74962582,11.3308036 10.713995,11.5357143 11.6893228,11.5357143 C12.6646507,11.5357143 13.6290198,11.3308036 14.5605128,10.9285714 C15.8828674,10.9665179 16.9495181,12.0935268 16.9495181,13.4785714 L16.9495181,15.1785714 Z M20.3101984,8.5 L19.4334992,8.5 C18.8015452,8.5 18.2134261,8.70111607 17.7239357,9.04263393 C18.2134261,9.42589286 18.6444699,9.88504464 18.9805379,10.4162946 C19.1230016,10.3631696 19.272771,10.3214286 19.4298463,10.3214286 L20.3065455,10.3214286 C21.0298224,10.3214286 21.6215943,10.9361607 21.6215943,11.6875 C21.6215943,12.1883929 22.016109,12.5982143 22.4982935,12.5982143 C22.9804781,12.5982143 23.3749927,12.1883929 23.3749927,11.6875 C23.3786457,9.93058036 22.0014973,8.5 20.3101984,8.5 Z M11.6893228,8.5 C13.9504762,8.5 15.7805858,6.59888393 15.7805858,4.25 C15.7805858,1.90111607 13.9504762,0 11.6893228,0 C9.42816945,0 7.59805984,1.90111607 7.59805984,4.25 C7.59805984,6.59888393 9.42816945,8.5 11.6893228,8.5 Z M11.6893228,1.82142857 C12.9788013,1.82142857 14.0271874,2.91049107 14.0271874,4.25 C14.0271874,5.58950893 12.9788013,6.67857143 11.6893228,6.67857143 C10.3998444,6.67857143 9.35145827,5.58950893 9.35145827,4.25 C9.35145827,2.91049107 10.3998444,1.82142857 11.6893228,1.82142857 Z M5.65470992,9.04263393 C5.16521953,8.70111607 4.57710047,8.5 3.94514646,8.5 L3.06844724,8.5 C1.37714835,8.5 0,9.93058036 0,11.6875 C0,12.1883929 0.394514646,12.5982143 0.876699212,12.5982143 C1.35888378,12.5982143 1.75339842,12.1883929 1.75339842,11.6875 C1.75339842,10.9361607 2.34517039,10.3214286 3.06844724,10.3214286 L3.94514646,10.3214286 C4.10587464,10.3214286 4.25564409,10.3631696 4.3944548,10.4162946 C4.73417575,9.88504464 5.16521953,9.42589286 5.65470992,9.04263393 Z" id="Shape"></path>
            </g>
        </g>
    </g>
</svg>