{
  "id": "123",
  "state": {
    "currentStepId": "/order-listing/package-options",
    "state": [
      {
        "id": "/order-listing/details",
        "active": true,
        "started": true,
        "completed": true
      },
      {
        "id": "/order-listing/details/property",
        "active": true,
        "started": true,
        "completed": true
      },
      {
        "id": "/order-listing/details/agent",
        "active": true,
        "started": true,
        "completed": true
      },
      {
        "id": "/order-listing/photography",
        "active": true,
        "started": true,
        "completed": true
      },
      {
        "id": "/order-listing/photography/select-photographer",
        "active": true,
        "started": true,
        "completed": true
      },
      {
        "id": "/order-listing/photography/photography-upgrades",
        "active": true,
        "started": true,
        "completed": true
      },
      {
        "id": "/order-listing/photography/schedule-photographer",
        "active": true,
        "started": true,
        "completed": true
      },
      {
        "id": "/order-listing/photography/photographer-comments",
        "active": true,
        "started": true,
        "completed": true
      },
      {
        "id": "/order-listing/package-options",
        "active": true,
        "started": true,
        "completed": true
      },
      {
        "id": "/order-listing/checkout",
        "active": true,
        "started": false,
        "completed": false
      },
      {
        "id": "/order-listing/checkout/shipping",
        "active": true,
        "started": false,
        "completed": false
      },
      {
        "id": "/order-listing/checkout/billing",
        "active": true,
        "started": false,
        "completed": false
      }
    ]
  }
}
